{
  "entries": {
    "brew": {
      "carthage": {
        "version": "0.38.0",
        "bottle": {
          "rebuild": 0,
          "root_url": "https://ghcr.io/v2/homebrew/core",
          "files": {
            "arm64_monterey": {
              "cellar": ":any_skip_relocation",
              "url": "https://ghcr.io/v2/homebrew/core/carthage/blobs/sha256:31e066eb80819a224b4b98b2c5cb9f11989c787e8de7cc0b4c492663fd0e7075",
              "sha256": "31e066eb80819a224b4b98b2c5cb9f11989c787e8de7cc0b4c492663fd0e7075"
            },
            "arm64_big_sur": {
              "cellar": ":any_skip_relocation",
              "url": "https://ghcr.io/v2/homebrew/core/carthage/blobs/sha256:e9be26e66087b149d4d6ff813323fb5fa1ac0ec1a55d3d1a26fc3aafc8f8e8ec",
              "sha256": "e9be26e66087b149d4d6ff813323fb5fa1ac0ec1a55d3d1a26fc3aafc8f8e8ec"
            },
            "monterey": {
              "cellar": ":any_skip_relocation",
              "url": "https://ghcr.io/v2/homebrew/core/carthage/blobs/sha256:17481cd77a643af4799e2c603ae808cd09a6487e73638caab0af8cdeffc2c438",
              "sha256": "17481cd77a643af4799e2c603ae808cd09a6487e73638caab0af8cdeffc2c438"
            },
            "big_sur": {
              "cellar": ":any_skip_relocation",
              "url": "https://ghcr.io/v2/homebrew/core/carthage/blobs/sha256:863d4165b65d4a914f0585ca68a2ae15a179d663dbd29e6fd1d0a0ec769b97c3",
              "sha256": "863d4165b65d4a914f0585ca68a2ae15a179d663dbd29e6fd1d0a0ec769b97c3"
            },
            "catalina": {
              "cellar": ":any_skip_relocation",
              "url": "https://ghcr.io/v2/homebrew/core/carthage/blobs/sha256:ea1df2bc55049416020811e5c995a28a3d6a0d26ef4bbe67bc9b248a11727e96",
              "sha256": "ea1df2bc55049416020811e5c995a28a3d6a0d26ef4bbe67bc9b248a11727e96"
            },
            "mojave": {
              "cellar": ":any_skip_relocation",
              "url": "https://ghcr.io/v2/homebrew/core/carthage/blobs/sha256:417d7a04952ad1845e88f8699a508e5fee109f9f903433eb7c4c860738b7843e",
              "sha256": "417d7a04952ad1845e88f8699a508e5fee109f9f903433eb7c4c860738b7843e"
            }
          }
        }
      },
      "swiftlint": {
        "version": "0.46.5",
        "bottle": {
          "rebuild": 0,
          "root_url": "https://ghcr.io/v2/homebrew/core",
          "files": {
            "arm64_monterey": {
              "cellar": ":any_skip_relocation",
              "url": "https://ghcr.io/v2/homebrew/core/swiftlint/blobs/sha256:6285b488bb88cc6f2f2a989cfb56934f901d9491d222679d21f8b71c6bd3202c",
              "sha256": "6285b488bb88cc6f2f2a989cfb56934f901d9491d222679d21f8b71c6bd3202c"
            },
            "arm64_big_sur": {
              "cellar": ":any_skip_relocation",
              "url": "https://ghcr.io/v2/homebrew/core/swiftlint/blobs/sha256:ffa98c60976449b926a6f62c954a6def1f83d0f44bb027729876e51a24308876",
              "sha256": "ffa98c60976449b926a6f62c954a6def1f83d0f44bb027729876e51a24308876"
            },
            "monterey": {
              "cellar": ":any_skip_relocation",
              "url": "https://ghcr.io/v2/homebrew/core/swiftlint/blobs/sha256:9104eafbbce0f710f063f2016a991971067f94f0428c606895ecd38dff0b622b",
              "sha256": "9104eafbbce0f710f063f2016a991971067f94f0428c606895ecd38dff0b622b"
            },
            "big_sur": {
              "cellar": ":any_skip_relocation",
              "url": "https://ghcr.io/v2/homebrew/core/swiftlint/blobs/sha256:6ef668df8a55c1c130782677d4aaf4ddf217c9143416daa2a71943ec6acdff19",
              "sha256": "6ef668df8a55c1c130782677d4aaf4ddf217c9143416daa2a71943ec6acdff19"
            }
          }
        }
      },
      "swiftformat": {
        "version": "0.49.5",
        "bottle": {
          "rebuild": 0,
          "root_url": "https://ghcr.io/v2/homebrew/core",
          "files": {
            "arm64_monterey": {
              "cellar": ":any_skip_relocation",
              "url": "https://ghcr.io/v2/homebrew/core/swiftformat/blobs/sha256:6ce4fd0d4ed7a9e79c5505a2b085a8acc74021116097d2776a210d76724e72cb",
              "sha256": "6ce4fd0d4ed7a9e79c5505a2b085a8acc74021116097d2776a210d76724e72cb"
            },
            "arm64_big_sur": {
              "cellar": ":any_skip_relocation",
              "url": "https://ghcr.io/v2/homebrew/core/swiftformat/blobs/sha256:dc3649979a7461b92339c62e0360dfbc5fce2eeac62a08ef11639f89370d69e4",
              "sha256": "dc3649979a7461b92339c62e0360dfbc5fce2eeac62a08ef11639f89370d69e4"
            },
            "monterey": {
              "cellar": ":any_skip_relocation",
              "url": "https://ghcr.io/v2/homebrew/core/swiftformat/blobs/sha256:c5a0ccb162f2e0e4baa2863d5f260c189fd271ddbab299c5e6c4bb33c42cbf97",
              "sha256": "c5a0ccb162f2e0e4baa2863d5f260c189fd271ddbab299c5e6c4bb33c42cbf97"
            },
            "big_sur": {
              "cellar": ":any_skip_relocation",
              "url": "https://ghcr.io/v2/homebrew/core/swiftformat/blobs/sha256:a1d50fb7627c5a2e084a0a7f1e0835c1e380e41ca50c7b32f268fbdbbbca16ac",
              "sha256": "a1d50fb7627c5a2e084a0a7f1e0835c1e380e41ca50c7b32f268fbdbbbca16ac"
            },
            "catalina": {
              "cellar": ":any_skip_relocation",
              "url": "https://ghcr.io/v2/homebrew/core/swiftformat/blobs/sha256:8168fbe08520c4555db5472355f9d1818e740356871f9a05ca47250e89b3c583",
              "sha256": "8168fbe08520c4555db5472355f9d1818e740356871f9a05ca47250e89b3c583"
            }
          }
        }
      }
    }
  },
  "system": {
    "macos": {
      "big_sur": {
        "HOMEBREW_VERSION": "3.4.1",
        "HOMEBREW_PREFIX": "/usr/local",
        "Homebrew/homebrew-core": "1aef3d4871d3eb13d4bfdc1ccf874692ce6ea425",
        "CLT": "13.0.0.0.1.1630607135",
        "Xcode": "13.2.1",
        "macOS": "11.6.1"
      }
    }
  }
}
